#
# There is insufficient memory for the Java Runtime Environment to continue.
# Native memory allocation (mmap) failed to map 58720256 bytes for G1 virtual space
# Possible reasons:
#   The system is out of physical RAM or swap space
#   The process is running with CompressedOops enabled, and the Java Heap may be blocking the growth of the native heap
# Possible solutions:
#   Reduce memory load on the system
#   Increase physical memory or swap space
#   Check if swap backing store is full
#   Decrease Java heap size (-Xmx/-Xms)
#   Decrease number of Java threads
#   Decrease Java thread stack sizes (-Xss)
#   Set larger code cache with -XX:ReservedCodeCacheSize=
#   JVM is running with Unscaled Compressed Oops mode in which the Java heap is
#     placed in the first 4GB address space. The Java Heap base address is the
#     maximum limit for the native heap growth. Please use -XX:HeapBaseMinAddress
#     to set the Java Heap base and to place the Java Heap above 4GB virtual address.
# This output file may be truncated or incomplete.
#
#  Out of Memory Error (os_windows.cpp:3535), pid=6196, tid=17048
#
# JRE version:  (17.0.3+7) (build )
# Java VM: OpenJDK 64-Bit Server VM (17.0.3+7, mixed mode, sharing, tiered, compressed oops, compressed class ptrs, g1 gc, windows-amd64)
# No core dump will be written. Minidumps are not enabled by default on client versions of Windows
#

---------------  S U M M A R Y ------------

Command Line: -Dfile.encoding=UTF-8 -XX:+ShowCodeDetailsInExceptionMessages day5.main

Host: AMD A9-9425 RADEON R5, 5 COMPUTE CORES 2C+3G   , 2 cores, 3G,  Windows 10 , 64 bit Build 17134 (10.0.17134.753)
Time: Mon Aug  8 15:21:35 2022 SE Asia Standard Time elapsed time: 0.033264 seconds (0d 0h 0m 0s)

---------------  T H R E A D  ---------------

Current thread (0x0000014ba01abf50):  JavaThread "Unknown thread" [_thread_in_vm, id=17048, stack(0x000000414ee00000,0x000000414ef00000)]

Stack: [0x000000414ee00000,0x000000414ef00000]
Native frames: (J=compiled Java code, j=interpreted, Vv=VM code, C=native code)
V  [jvm.dll+0x675efa]
V  [jvm.dll+0x830a24]
V  [jvm.dll+0x8321ce]
V  [jvm.dll+0x832833]
V  [jvm.dll+0x2454b5]
V  [jvm.dll+0x672de9]
V  [jvm.dll+0x667732]
V  [jvm.dll+0x3043ab]
V  [jvm.dll+0x30b8f6]
V  [jvm.dll+0x35b62e]
V  [jvm.dll+0x35b85f]
V  [jvm.dll+0x2db248]
V  [jvm.dll+0x2dc1b4]
V  [jvm.dll+0x802651]
V  [jvm.dll+0x3693b1]
V  [jvm.dll+0x7e1aac]
V  [jvm.dll+0x3ebd8f]
V  [jvm.dll+0x3ed911]
C  [jli.dll+0x5277]
C  [ucrtbase.dll+0x1e3fe]
C  [KERNEL32.DLL+0x14034]
C  [ntdll.dll+0x73691]


---------------  P R O C E S S  ---------------

Threads class SMR info:
_java_thread_list=0x00007ff9ef3b6e98, length=0, elements={
}

Java Threads: ( => current thread )

Other Threads:
  0x0000014ba01e6420 GCTaskThread "GC Thread#0" [stack: 0x000000414ef00000,0x000000414f000000] [id=13436]
  0x0000014ba01edef0 ConcurrentGCThread "G1 Main Marker" [stack: 0x000000414f000000,0x000000414f100000] [id=13712]
  0x0000014ba01f0520 ConcurrentGCThread "G1 Conc#0" [stack: 0x000000414f100000,0x000000414f200000] [id=5072]

[error occurred during error reporting (printing all threads), id 0xc0000005, EXCEPTION_ACCESS_VIOLATION (0xc0000005) at pc=0x00007ff9eeb8bcd7]

VM state: not at safepoint (not fully initialized)

VM Mutex/Monitor currently owned by a thread:  ([mutex/lock_event])
[0x0000014ba01a9900] Heap_lock - owner thread: 0x0000014ba01abf50

Heap address: 0x00000000c9c00000, size: 868 MB, Compressed Oops mode: 32-bit

CDS archive(s) mapped at: [0x0000000000000000-0x0000000000000000-0x0000000000000000), size 0, SharedBaseAddress: 0x0000000800000000, ArchiveRelocationMode: 0.
Narrow klass base: 0x0000000000000000, Narrow klass shift: 0, Narrow klass range: 0x0

GC Precious Log:
<Empty>

Heap:
 garbage-first heap   total 0K, used 0K [0x00000000c9c00000, 0x0000000100000000)
  region size 1024K, 0 young (0K), 0 survivors (0K)

[error occurred during error reporting (printing heap information), id 0xc0000005, EXCEPTION_ACCESS_VIOLATION (0xc0000005) at pc=0x00007ff9eef6f249]

GC Heap History (0 events):
No events

Deoptimization events (0 events):
No events

Classes unloaded (0 events):
No events

Classes redefined (0 events):
No events

Internal exceptions (0 events):
No events

VM Operations (0 events):
No events

Events (1 events):
Event: 0.018 Loaded shared library E:\data FD\Kerjaan\kerjaan jakarta\sts-4.15.1.RELEASE\plugins\org.eclipse.justj.openjdk.hotspot.jre.full.win32.x86_64_17.0.3.v20220515-1416\jre\bin\java.dll


Dynamic libraries:
0x00007ff7fe3f0000 - 0x00007ff7fe3fe000 	E:\data FD\Kerjaan\kerjaan jakarta\sts-4.15.1.RELEASE\plugins\org.eclipse.justj.openjdk.hotspot.jre.full.win32.x86_64_17.0.3.v20220515-1416\jre\bin\javaw.exe
0x00007ffa32820000 - 0x00007ffa32a01000 	C:\Windows\SYSTEM32\ntdll.dll
0x00007ffa30340000 - 0x00007ffa303f1000 	C:\Windows\System32\KERNEL32.DLL
0x00007ffa2f6f0000 - 0x00007ffa2f963000 	C:\Windows\System32\KERNELBASE.dll
0x00007ffa2f970000 - 0x00007ffa2fa68000 	C:\Windows\System32\ucrtbase.dll
0x00007ffa17770000 - 0x00007ffa17788000 	E:\data FD\Kerjaan\kerjaan jakarta\sts-4.15.1.RELEASE\plugins\org.eclipse.justj.openjdk.hotspot.jre.full.win32.x86_64_17.0.3.v20220515-1416\jre\bin\jli.dll
0x00007ffa30a50000 - 0x00007ffa30be0000 	C:\Windows\System32\USER32.dll
0x00007ffa2ec30000 - 0x00007ffa2ec50000 	C:\Windows\System32\win32u.dll
0x00007ffa32650000 - 0x00007ffa32678000 	C:\Windows\System32\GDI32.dll
0x00007ffa2ec50000 - 0x00007ffa2ede1000 	C:\Windows\System32\gdi32full.dll
0x00007ffa2fc00000 - 0x00007ffa2fc9f000 	C:\Windows\System32\msvcp_win.dll
0x00007ffa16600000 - 0x00007ffa16619000 	E:\data FD\Kerjaan\kerjaan jakarta\sts-4.15.1.RELEASE\plugins\org.eclipse.justj.openjdk.hotspot.jre.full.win32.x86_64_17.0.3.v20220515-1416\jre\bin\VCRUNTIME140.dll
0x00007ffa20380000 - 0x00007ffa205e9000 	C:\Windows\WinSxS\amd64_microsoft.windows.common-controls_6595b64144ccf1df_6.0.17134.1304_none_d3fbe61b7c93d9f0\COMCTL32.dll
0x00007ffa30db0000 - 0x00007ffa30e4e000 	C:\Windows\System32\msvcrt.dll
0x00007ffa2fd90000 - 0x00007ffa300b1000 	C:\Windows\System32\combase.dll
0x00007ffa30e50000 - 0x00007ffa30f74000 	C:\Windows\System32\RPCRT4.dll
0x00007ffa2fa70000 - 0x00007ffa2fae9000 	C:\Windows\System32\bcryptPrimitives.dll
0x00007ffa2fd60000 - 0x00007ffa2fd8d000 	C:\Windows\System32\IMM32.DLL
0x00007ffa22ec0000 - 0x00007ffa22ecc000 	E:\data FD\Kerjaan\kerjaan jakarta\sts-4.15.1.RELEASE\plugins\org.eclipse.justj.openjdk.hotspot.jre.full.win32.x86_64_17.0.3.v20220515-1416\jre\bin\vcruntime140_1.dll
0x00007ffa02360000 - 0x00007ffa023f1000 	E:\data FD\Kerjaan\kerjaan jakarta\sts-4.15.1.RELEASE\plugins\org.eclipse.justj.openjdk.hotspot.jre.full.win32.x86_64_17.0.3.v20220515-1416\jre\bin\msvcp140.dll
0x00007ff9ee8a0000 - 0x00007ff9ef4e8000 	E:\data FD\Kerjaan\kerjaan jakarta\sts-4.15.1.RELEASE\plugins\org.eclipse.justj.openjdk.hotspot.jre.full.win32.x86_64_17.0.3.v20220515-1416\jre\bin\server\jvm.dll
0x00007ffa30940000 - 0x00007ffa309e1000 	C:\Windows\System32\ADVAPI32.dll
0x00007ffa309f0000 - 0x00007ffa30a4b000 	C:\Windows\System32\sechost.dll
0x00007ffa327e0000 - 0x00007ffa327e8000 	C:\Windows\System32\PSAPI.DLL
0x00007ffa1dd80000 - 0x00007ffa1dd89000 	C:\Windows\SYSTEM32\WSOCK32.dll
0x00007ffa323d0000 - 0x00007ffa3243c000 	C:\Windows\System32\WS2_32.dll
0x00007ffa2bba0000 - 0x00007ffa2bbc3000 	C:\Windows\SYSTEM32\WINMM.dll
0x00007ffa2a2d0000 - 0x00007ffa2a2da000 	C:\Windows\SYSTEM32\VERSION.dll
0x00007ffa2bb70000 - 0x00007ffa2bb9a000 	C:\Windows\SYSTEM32\WINMMBASE.dll
0x00007ffa2ebe0000 - 0x00007ffa2ec29000 	C:\Windows\System32\cfgmgr32.dll
0x00007ffa2eba0000 - 0x00007ffa2ebb1000 	C:\Windows\System32\kernel.appcore.dll
0x00007ffa2b0d0000 - 0x00007ffa2b0da000 	E:\data FD\Kerjaan\kerjaan jakarta\sts-4.15.1.RELEASE\plugins\org.eclipse.justj.openjdk.hotspot.jre.full.win32.x86_64_17.0.3.v20220515-1416\jre\bin\jimage.dll
0x00007ffa2d630000 - 0x00007ffa2d7f9000 	C:\Windows\SYSTEM32\DBGHELP.DLL
0x00007ffa1bab0000 - 0x00007ffa1bad9000 	C:\Windows\SYSTEM32\dbgcore.DLL
0x00007ffa29dc0000 - 0x00007ffa29de5000 	E:\data FD\Kerjaan\kerjaan jakarta\sts-4.15.1.RELEASE\plugins\org.eclipse.justj.openjdk.hotspot.jre.full.win32.x86_64_17.0.3.v20220515-1416\jre\bin\java.dll

dbghelp: loaded successfully - version: 4.0.5 - missing functions: none
symbol engine: initialized successfully - sym options: 0x614 - pdb path: .;E:\data FD\Kerjaan\kerjaan jakarta\sts-4.15.1.RELEASE\plugins\org.eclipse.justj.openjdk.hotspot.jre.full.win32.x86_64_17.0.3.v20220515-1416\jre\bin;C:\Windows\SYSTEM32;C:\Windows\WinSxS\amd64_microsoft.windows.common-controls_6595b64144ccf1df_6.0.17134.1304_none_d3fbe61b7c93d9f0;E:\data FD\Kerjaan\kerjaan jakarta\sts-4.15.1.RELEASE\plugins\org.eclipse.justj.openjdk.hotspot.jre.full.win32.x86_64_17.0.3.v20220515-1416\jre\bin\server

VM Arguments:
jvm_args: -Dfile.encoding=UTF-8 -XX:+ShowCodeDetailsInExceptionMessages 
java_command: day5.main
java_class_path (initial): E:\data FD\Kerjaan\kerjaan jakarta\Alhamdullilah Tiasa LogicGitlab\xalogicbatch298\bin;C:\Users\USER\.m2\repository\jakarta\persistence\jakarta.persistence-api\2.2.3\jakarta.persistence-api-2.2.3.jar
Launcher Type: SUN_STANDARD

[Global flags]
     intx CICompilerCount                          = 2                                         {product} {ergonomic}
     uint ConcGCThreads                            = 1                                         {product} {ergonomic}
     uint G1ConcRefinementThreads                  = 2                                         {product} {ergonomic}
   size_t G1HeapRegionSize                         = 1048576                                   {product} {ergonomic}
    uintx GCDrainStackTargetSize                   = 64                                        {product} {ergonomic}
   size_t InitialHeapSize                          = 58720256                                  {product} {ergonomic}
   size_t MarkStackSize                            = 4194304                                   {product} {ergonomic}
   size_t MaxHeapSize                              = 910163968                                 {product} {ergonomic}
   size_t MinHeapDeltaBytes                        = 1048576                                   {product} {ergonomic}
   size_t MinHeapSize                              = 8388608                                   {product} {ergonomic}
    uintx NonNMethodCodeHeapSize                   = 5826188                                {pd product} {ergonomic}
    uintx NonProfiledCodeHeapSize                  = 122916026                              {pd product} {ergonomic}
    uintx ProfiledCodeHeapSize                     = 122916026                              {pd product} {ergonomic}
    uintx ReservedCodeCacheSize                    = 251658240                              {pd product} {ergonomic}
     bool SegmentedCodeCache                       = true                                      {product} {ergonomic}
     bool ShowCodeDetailsInExceptionMessages       = true                                   {manageable} {command line}
   size_t SoftMaxHeapSize                          = 910163968                              {manageable} {ergonomic}
     bool UseCompressedClassPointers               = true                           {product lp64_product} {ergonomic}
     bool UseCompressedOops                        = true                           {product lp64_product} {ergonomic}
     bool UseG1GC                                  = true                                      {product} {ergonomic}
     bool UseLargePagesIndividualAllocation        = false                                  {pd product} {ergonomic}

Logging:
Log output configuration:
 #0: stdout all=warning uptime,level,tags
 #1: stderr all=off uptime,level,tags

Environment Variables:
PATH=E:/data FD/Kerjaan/kerjaan jakarta/sts-4.15.1.RELEASE//plugins/org.eclipse.justj.openjdk.hotspot.jre.full.win32.x86_64_17.0.3.v20220515-1416/jre/bin/server;E:/data FD/Kerjaan/kerjaan jakarta/sts-4.15.1.RELEASE//plugins/org.eclipse.justj.openjdk.hotspot.jre.full.win32.x86_64_17.0.3.v20220515-1416/jre/bin;C:\Program Files (x86)\Common Files\Intel\Shared Libraries\redist\intel64\compiler;C:\Program Files (x86)\Common Files\Oracle\Java\javapath;C:\Windows\system32;C:\Windows;C:\Windows\System32\Wbem;C:\Windows\System32\WindowsPowerShell\v1.0\;C:\Windows\System32\OpenSSH\;C:\Program Files (x86)\GtkSharp\2.12\bin;C:\Program Files\Git\cmd;E:\data FD\Kerjaan\kerjaan jakarta\sts-4.15.1.RELEASE;
USERNAME=USER
OS=Windows_NT
PROCESSOR_IDENTIFIER=AMD64 Family 21 Model 112 Stepping 0, AuthenticAMD



---------------  S Y S T E M  ---------------

OS:
 Windows 10 , 64 bit Build 17134 (10.0.17134.753)
OS uptime: 10 days 6:37 hours

CPU: total 2 (initial active 2) (2 cores per cpu, 1 threads per core) family 21 model 112 stepping 0 microcode 0x0, cx8, cmov, fxsr, mmx, 3dnowpref, sse, sse2, sse3, ssse3, sse4a, sse4.1, sse4.2, popcnt, lzcnt, tsc, tscinvbit, avx, avx2, aes, clmul, bmi1, bmi2, fma, vzeroupper, clflush

Memory: 4k page, system-wide physical 3471M (294M free)
TotalPageFile size 14223M (AvailPageFile size 8M)
current process WorkingSet (physical memory assigned to process): 9M, peak: 9M
current process commit charge ("private bytes"): 47M, peak: 103M

vm_info: OpenJDK 64-Bit Server VM (17.0.3+7) for windows-amd64 JRE (17.0.3+7), built on Apr 19 2022 16:55:35 by "" with MS VC++ 16.7 (VS2019)

END.
